778981 82521
771053 754359
829931 71155
343337 318520
202113 536581
521113 329322
426293 310372
128850 367775
117322 847464
779966 188829
21472 893529
167050 484034
758070 404813
854694 505186
160316 551517
547067 358439
145025 623831
569926 128911
121589 791043
72295 144043
989636 737856
975548 613103
188338 831103
42313 710729
54039 172519
117652 715515
67479 371736
572064 793898
996646 247262
713936 54941
661644 34164
914129 123125
284941 390404
155937 616989
848794 149144
109960 932429
701081 347734
333388 963765
971868 556428
931774 731669
747355 239289
448551 878189
507827 819904
266623 185407
144407 63726
158487 68600
826994 877635
222282 662517
433108 173972
747184 4199
297517 172320
87919 430021
173277 478124
723779 269069
16272 991570
604591 314440
10785 411002
229102 522147
185220 361052
774144 357943
288727 865140
195409 292031
101793 795291
60575 251875
540153 216354
723263 297607
997691 34827
876859 349989
415644 8572
226480 686150
303984 512745
576692 702977
328071 161267
56201 295643
80143 763924
837665 101335
592898 891093
687618 307528
373830 13372
277404 795033
352371 471747
148443 568428
583629 646258
270042 885991
647541 853629
584930 254054
559306 143125
123348 873149
754051 757584
206978 332525
148328 885543
480516 282439
341710 250230
579898 714010
42526 100924
165221 258578
724215 794171
112135 906818
810776 394762
893586 228379
409413 385715
744233 388045
324059 627644
288831 223514
504477 645958
677211 197933
721934 293453
295468 99800
374151 561623
762040 525386
643073 635451
143805 562891
474712 835020
821606 853781
197837 924927
898236 854422
992277 644881
295492 582272
336231 112128
995056 85263
939210 740075
442304 467430
522790 983354
48550 874777
160048 775795
205460 45809
193252 34025
423124 907904
769754 538277
704487 832523
758412 535667
580004 282277
986123 619426
827844 718912
344872 770977
223441 45798
388764 945460
209966 453524
559372 468893
630541 138093
97700 606499
245757 544678
437670 507897
403105 35030
183902 434663
591442 839533
498063 315725
557078 139195
437195 904324
929416 620640
876107 463602
897359 433200
337762 498076
323479 582519
678378 85986
795404 309753
620412 75504
178901 914926
297758 227858
572437 706696
405396 792129
575150 331426
946175 704580
971067 861625
639723 905814
873327 527837
420112 928035
320994 891338
651266 909406
35283 174882
811284 987884
816498 581410
852673 368284
409374 703583
393147 255165
191678 899464
254710 56742
495375 182873
888238 528440
212319 11469
947867 612293
816207 819751
210115 610870
53949 820508
728443 651651
477839 162013
704955 975107
910522 326726
133073 195167
345331 352200
231460 227118
586773 29561
648453 40747
565164 687078
561003 705881
499805 368202
403403 294209
744018 483099
736450 182148
689941 773966
591853 85049
906719 344160
73412 114606
