778981 82521 509
771053 754359 468
829931 71155 509
343337 318520 384
202113 536581 470
521113 329322 470
426293 310372 449
128850 367775 443
117322 847464 525
779966 188829 509
21472 893529 525
167050 484034 449
758070 404813 509
854694 505186 525
160316 551517 470
547067 358439 470
145025 623831 470
569926 128911 470
121589 791043 509
72295 144043 375
989636 737856 525
975548 613103 525
188338 831103 509
42313 710729 509
54039 172519 383
117652 715515 509
67479 371736 443
572064 793898 509
996646 247262 525
713936 54941 509
661644 34164 509
914129 123125 525
284941 390404 441
155937 616989 470
848794 149144 525
109960 932429 525
701081 347734 509
333388 963765 525
971868 556428 525
931774 731669 525
747355 239289 509
448551 878189 525
507827 819904 509
266623 185407 443
144407 63726 375
158487 68600 383
826994 877635 525
222282 662517 509
433108 173972 449
747184 4199 509
297517 172320 443
87919 430021 449
173277 478124 449
723779 269069 509
16272 991570 525
604591 314440 470
10785 411002 449
229102 522147 470
185220 361052 443
774144 357943 509
288727 865140 525
195409 292031 443
101793 795291 509
60575 251875 443
540153 216354 470
723263 297607 509
997691 34827 525
876859 349989 525
415644 8572 449
226480 686150 509
303984 512745 470
576692 702977 509
328071 161267 443
56201 295643 443
80143 763924 509
837665 101335 509
592898 891093 525
687618 307528 509
373830 13372 443
277404 795033 509
352371 471747 449
148443 568428 470
583629 646258 509
270042 885991 525
647541 853629 525
584930 254054 470
559306 143125 470
123348 873149 525
754051 757584 362
206978 332525 443
148328 885543 525
480516 282439 449
341710 250230 407
579898 714010 509
42526 100924 351
165221 258578 443
724215 794171 468
112135 906818 525
810776 394762 509
893586 228379 525
409413 385715 436
744233 388045 509
324059 627644 509
288831 223514 443
504477 645958 509
677211 197933 509
721934 293453 509
295468 99800 443
374151 561623 470
762040 525386 509
643073 635451 416
143805 562891 470
474712 835020 509
821606 853781 525
197837 924927 525
898236 854422 445
992277 644881 525
295492 582272 470
336231 112128 443
995056 85263 525
939210 740075 525
442304 467430 444
522790 983354 525
48550 874777 525
160048 775795 509
205460 45809 383
193252 34025 383
423124 907904 525
769754 538277 509
704487 832523 504
758412 535667 509
580004 282277 470
986123 619426 525
827844 718912 468
344872 770977 509
223441 45798 386
388764 945460 525
209966 453524 449
559372 468893 470
630541 138093 509
97700 606499 470
245757 544678 470
437670 507897 444
403105 35030 443
183902 434663 449
591442 839533 525
498063 315725 449
557078 139195 470
437195 904324 525
929416 620640 525
876107 463602 525
897359 433200 525
337762 498076 449
323479 582519 470
678378 85986 509
795404 309753 509
620412 75504 470
178901 914926 525
297758 227858 443
572437 706696 509
405396 792129 509
575150 331426 470
946175 704580 525
971067 861625 507
639723 905814 525
873327 527837 525
420112 928035 525
320994 891338 525
651266 909406 525
35283 174882 383
811284 987884 525
816498 581410 509
852673 368284 525
409374 703583 509
393147 255165 441
191678 899464 525
254710 56742 443
495375 182873 449
888238 528440 525
212319 11469 383
947867 612293 525
816207 819751 450
210115 610870 470
53949 820508 509
728443 651651 504
477839 162013 449
704955 975107 525
910522 326726 525
133073 195167 383
345331 352200 441
231460 227118 443
586773 29561 470
648453 40747 509
565164 687078 509
561003 705881 509
499805 368202 449
403403 294209 441
744018 483099 509
736450 182148 509
689941 773966 504
591853 85049 470
906719 344160 525
73412 114606 354
