893241 513495
595371 319247
619949 338060
832997 420384
15884 141382
44380 106575
223866 255082
390002 242474
331870 520186
613723 60837
767818 88577
993189 513957
539237 327963
550370 587742
554936 845811
171916 655462
45424 934330
274298 269880
795809 650725
883252 509861
770731 965269
689897 449278
718830 622314
219303 860917
848990 440922
435241 2688
263734 506140
352308 176952
894637 704416
311856 615482
329511 246978
763959 642149
880726 194229
733482 268467
547201 644748
399204 576074
449644 633538
794075 905057
517634 931434
717747 179744
855274 257204
551762 627149
423623 515047
180093 856368
820750 750587
499522 58007
573649 133991
858041 196328
324466 594156
315627 431469
587125 722545
777463 872534
638746 314508
626697 479025
586470 209845
906169 279918
733179 319206
428751 379852
506512 5180
5569 162507
259862 460231
89979 554186
403172 164471
5533 752597
178468 308676
326682 680097
710690 807754
362981 482589
9091 206487
145052 278062
848481 111912
60656 460940
2645 767191
774455 482740
954279 818152
257483 217147
153242 945023
369547 512652
924050 706464
566625 114680
971886 559315
721126 158840
225383 857401
430135 14276
140526 647309
441565 120733
795563 73872
698189 810022
444030 141917
523431 666302
14654 81831
696346 465514
462517 634259
115844 740862
303554 246285
300641 569495
731204 336288
556921 572735
394556 382199
93856 562677
228531 814968
286428 748800
34673 812209
192677 611246
117682 799103
26243 174124
851852 69382
198109 197343
223566 469629
876093 369905
220201 117272
409862 464909
661971 484232
841430 414810
915321 404997
508513 153962
970906 686633
970141 572706
700306 853227
602946 610253
226032 240455
835756 880153
103725 715680
203206 49377
373626 615690
140441 808309
345858 404478
276079 434800
650118 464308
196804 650885
644494 162803
350517 184973
322893 669509
903754 11309
842080 167053
326632 238881
552744 347861
719667 698878
29296 866583
938242 82847
293819 365857
480595 657519
975079 514020
50786 169480
767953 30154
7891 939134
917152 158120
299560 559007
857259 896946
539209 88795
391290 256539
672466 516357
500177 267185
926690 859844
190824 519156
682560 672
169724 150543
608975 362844
757445 601861
663107 457341
961268 617878
409622 282817
370995 769651
626398 939266
413112 142345
677200 14689
951846 301622
515030 287932
246551 947501
518076 616028
734769 519235
339009 913915
315018 254429
982583 546730
214072 181682
892601 35324
501321 377882
85820 48962
742816 423260
709026 466014
219174 199479
677913 872144
389485 886728
818953 79602
55444 1938
342132 290758
43708 28774
745235 304872
915731 76209
448689 933283
612746 696090
676072 407551
683003 74835
203945 193310
250112 154944
448339 476920
133314 90328
693112 402466
84742 78625
345199 859027
389889 42421
426136 77311
299561 210703
998158 488933
357367 847149
13392 238501
755788 393574
410429 7876
803824 476259
827562 977482
946453 751502
957356 507114
979851 816914
29358 973562
818318 979659
289442 658731
344265 757566
245372 338020
321094 453060
416275 298752
43079 227432
439530 503694
838203 238634
662193 651435
252186 230457
699703 319060
165889 923686
791778 817204
961385 816071
22702 402022
53988 737334
922327 218012
581881 151902
575990 19090
452238 342577
340114 104974
82920 192767
157545 842386
787405 897919
646732 860730
535698 540045
528769 21709
70853 435813
812400 972206
27229 817116
449079 571354
592238 464924
425063 72614
168730 344431
907171 975008
267530 725849
932257 805632
299240 60427
563257 469455
549832 524306
858026 328180
468699 557261
903572 497328
966173 285809
979948 949087
163939 302241
615092 556623
599398 727403
245567 540698
654938 736325
