1 10 20
100 200 125
201 210 89
900 1000 174
350 360 126
483 490 142
495 500 111
360 350 126
490 483 142
500 495 111
934 934 86
23643 23650 145
89075 69065 351
100000 99990 227
25 125 119
250 375 144
500 400 142
600 700 145
900 800 179
1000 1100 169
123456 987654 525
222 444 144
777 999 179
35342 1234 311
2134 1463 180
362 2 144
8976 9000 185
32463 60214 340
953 2 179
2500 125 209
6737 1244 262
777777 777777 155
878 3221 217
5675 12342 268
987 653 179
2356 5422 238
524288 524288 20
7725 8125 252
45735 64353 340
23 32 112
2457 2343 165
548 2354 183
979 698 179
2342 5332 238
98896 99999 328
9867 12500 268
87897 88000 271
98765 43210 351
987 123 179
764 909 179
25 25 24
1 1 1
295 125 128
565 3643 217
865 234 171
3474 2367 217
43754 24577 324
255334 123465 443
432933 985321 525
248453 463224 449
727356 363788 509
463234 643125 509
252344 132345 443
999999 1 525
100 99 26
300 212212 383
212212 300 383
5082 1 238
1 999999 525
100 200 125
99 7584 262
1 74 116
50 51 25
10 5 20
99 2 119
62101 700 340
400 1000 179
100 3985 238
82 74 111
73475 43753 340
2346 2346 121
3856 3475 238
34680 34578 205
6796 4586 262
2 2 2
89 32 116
496839 94854 449
2 4 8
500 1000 179
565 596 119
100 120 114
8 10 20
59404 404 340
92 29848 308
45894 398 324
485 4059 238
5 6 9
3055 49 217
309 409 144
94 49 116
4944 102 238
1029 30 179
435 786 171
30985 498 308
496833 495890 320
4985 102 238
4242 4949 215
498 3905 238
34 56 113
42 10 112
4893 584 238
32 43 110
32 123 119
1321 923 182
3275 3123 199
75532 74823 307
123332 123400 331
32 42 110
724208 236829 509
31786 77947 351
4766 71387 340
51747 8360 324
1773 22305 279
49010 8164 324
61096 935 340
318 36766 324
2555 7028 262
6509 8886 257
6757 59664 340
233 1815 182
5779 791 238
91854 7366 351
63000 196 340
8397 42268 324
257 41461 324
5094 586 238
2577 852 209
824 47365 324
23378 6872 279
44748 6845 324
40471 651 324
95471 924 351
406 5733 238
4628 66389 340
627 94586 351
36806 7021 324
807200 837434 450
628853 114925 509
763601 768561 468
137427 235137 443
98914 206323 383
617103 628005 509
131361 385189 443
980056 291095 525
637351 513283 509
895350 857509 445
450005 947460 525
856328 642922 525
874773 788664 525
262584 264352 407
385456 105268 443
829655 518079 509
451030 807711 509
847924 109366 525
529114 470913 470
877125 529362 525
335823 394008 441
489122 676338 509
682863 46765 509
611904 489748 470
205671 483510 449
446150 696648 509
632414 692934 442
164268 46180 383
477721 247693 449
981053 103805 525
177977 66955 383
739769 287813 509
547610 567724 421
46182 972664 525
11260 336922 443
726765 832689 468
397425 491264 449
776578 899057 525
751995 661618 504
954623 434734 525
733058 995003 525
428545 995615 525
165960 88100 383
169507 128327 383
222354 517120 470
418278 748859 509
826854 181306 509
656282 714655 504
86416 616381 470
712098 428158 509
58693 463129 449
260078 113033 443
171628 216200 373
95065 512072 470
775894 123817 509
160161 956069 525
7896 720194 509
554434 701693 509
781627 348031 509
276391 157671 443
683605 123554 509
327036 183370 443
668143 676060 385
