417164 702182 509
168011 385994 443
103848 513736 470
492871 474559 426
227835 193136 386
424575 842117 525
876873 470741 525
728559 39746 509
925072 94035 525
506015 65980 449
617832 446828 470
848531 475597 525
220006 173981 386
718437 75532 509
609570 706110 509
374330 608950 470
720926 846885 525
453873 413921 418
455727 190979 449
979522 97344 525
261419 240945 363
822153 213648 509
153993 377816 443
874076 726825 525
586076 959056 525
694408 118875 509
626687 96570 509
806345 852659 525
320078 977353 525
297744 883908 525
791825 606271 509
232670 411000 449
696261 50627 509
233282 144325 443
848661 559652 525
909549 961183 507
680101 493125 509
652180 117259 509
282185 418007 449
115803 587182 470
573596 831538 509
851934 411537 525
418719 757789 509
220732 609142 470
321479 690106 509
595713 455905 470
114118 408426 443
413056 727031 509
230265 937904 525
16281 753431 509
734875 69949 509
341684 104719 443
110997 625025 470
993498 262510 525
308442 438117 449
27357 219319 386
391002 840984 525
72894 64564 325
882662 761915 525
988054 645616 525
430664 83094 449
494593 836797 509
48810 626397 509
457946 44287 449
955638 837644 525
809300 973164 525
881333 141489 525
330928 414368 449
268708 245072 407
25849 658935 509
955889 732462 525
844471 103830 525
717390 778410 468
113011 218369 386
16164 80629 351
804368 547885 509
819095 894944 525
612570 95433 470
965985 793858 525
765917 996187 525
417378 54884 449
450955 917430 525
627626 562993 509
460653 810464 509
110133 46141 354
41296 823647 509
391643 612413 470
655752 351450 509
775756 832784 468
533445 893348 525
898075 218867 525
181241 385184 443
699570 559569 509
518318 625123 452
599754 709805 509
208871 207076 311
531782 219066 470
709417 507034 509
61233 234105 443
226903 949658 525
389014 943739 525
191986 502280 449
725699 261131 509
737697 491995 509
460642 217908 449
263467 789993 509
995883 461027 525
335664 451894 449
296781 476896 449
810562 726395 468
757469 941109 525
644492 338391 509
531624 680030 509
326262 927332 525
697772 154109 509
989358 878624 507
78722 142304 354
755671 546311 509
931896 174524 525
6508 443946 449
398321 62149 443
586311 80785 470
496108 480921 426
963006 836116 525
726740 979198 525
351100 234701 441
820515 596082 509
558283 839271 525
23818 214828 383
289239 950551 525
399396 476619 449
115714 165096 383
45154 667744 509
709282 401486 509
856685 47972 525
168776 474415 449
995825 782667 525
777475 701528 504
935112 419594 525
479083 48886 449
547079 270600 470
738698 60769 509
247886 914663 525
172418 707516 509
216189 122038 383
979392 906426 507
527218 443793 470
895317 286607 525
625593 159949 470
371558 983709 525
904774 626682 525
34784 850901 525
952692 665308 525
790549 871252 525
248844 710399 509
856366 182617 525
669421 819277 504
123601 952153 525
884989 201011 525
767717 262848 509
907472 633548 525
168730 526499 470
231808 700026 509
711313 596272 509
994370 574346 525
369270 825004 509
49850 304335 443
65949 830979 509
707185 76727 509
918944 384007 525
324949 946817 525
398664 438946 449
372326 251103 441
54818 422766 449
118955 849159 525
663442 468754 509
188936 493773 449
639166 396019 509
977314 992846 427
394060 496442 449
797312 941039 525
838107 528626 525
286618 472613 449
494895 8128 449
310880 443975 449
618998 441688 470
349406 414875 449
768272 951577 525
242184 806272 509
218857 882619 525
629371 115426 509
105780 333323 443
958166 301111 525
229101 441273 449
344527 46536 443
756534 525242 509
377851 968248 525
301034 648710 509
544064 507646 470
540193 896729 525
60938 317077 443
334628 388085 441
127274 82672 354
828041 478426 509
719141 39494 509
764482 614382 509
612927 931993 525
748731 770818 468
521852 238840 470
51616 578545 470
814865 557358 509
279205 716662 509
917454 295556 525
946527 565786 525
291143 647033 509
706665 857674 525
994988 645627 525
732219 10920 509
996376 936497 507
94977 624410 470
117311 928812 525
442791 30933 449
416170 3652 449
6849 626354 509
259514 843504 525
607581 868375 525
320453 265116 407
774359 136432 509
233733 378006 441
123574 923525 525
697712 505826 509
418329 80886 449
287526 128921 443
298088 294340 358
69618 312556 443
872131 879442 432
5859 513482 470
192235 321939 443
735580 682833 504
108567 181617 383
550868 969566 525
890624 804006 525
683440 877384 525
890133 990414 507
418671 81343 449
903451 865567 445
707092 885320 525
159279 210333 373
730038 320381 509
200610 606278 470
325437 684954 509
283006 485640 449
505149 885385 525
456080 597747 470
606419 193536 470
522111 677243 509
872186 608716 525
784084 482223 509
50739 510299 449
185755 726459 509
679764 261613 509
455770 670342 509
212318 870533 525
798598 21415 509
345608 641144 509
797202 783204 468
203895 265964 443
263927 155195 443
904337 556371 525
133494 307141 443
139194 56292 354
667515 182975 509
828775 238133 509
901577 692927 525
828737 27572 509
974985 669037 525
358769 476211 449
917292 907692 476
335707 719726 509
616367 311468 470
972868 980783 383
841858 901538 445
