596613 403509 470
769909 230887 509
784871 621761 509
223993 548033 470
584842 963561 525
65449 352982 443
671404 168154 509
170423 110763 383
309898 629664 509
307163 949772 525
935405 476589 525
793125 303338 509
82362 312134 443
626934 366790 509
390165 652089 509
546326 464927 470
46347 744525 509
406305 234008 441
835117 469970 509
208934 286507 443
606045 57977 470
216460 846043 525
178093 969932 525
496650 109126 449
233220 395112 441
145659 584376 470
826185 121440 509
629815 178217 509
478392 783868 509
664435 315140 509
73572 320005 443
368972 410090 449
668847 661979 442
432035 410970 418
578788 959302 525
776588 292096 509
595119 467277 470
517686 424064 470
237349 980477 525
770796 900132 525
716859 858128 525
338496 374021 441
606243 583453 434
125217 762780 509
981073 750329 525
302781 920374 525
885958 560459 525
350466 518388 470
975930 407260 525
163213 779612 509
803676 449624 509
642903 352644 509
926373 217005 525
695798 153382 509
365216 348221 410
691779 467611 509
851257 113143 525
424772 678329 509
463059 399952 449
493847 978842 525
698666 58264 509
783582 509926 509
530216 406706 470
878521 710523 525
548982 332207 470
973794 700955 525
178238 789714 509
539576 938943 525
858408 519131 525
527050 24084 470
805383 503644 509
996938 529063 525
392867 717263 509
738617 441580 509
47744 488806 449
414187 178886 449
120186 483509 449
13517 650353 509
952877 861344 507
214063 775761 509
991845 9390 525
764925 958669 525
339535 285577 389
968952 367746 525
761122 806050 468
193897 731246 509
145069 14786 375
367997 362558 361
3734 19227 279
706562 966756 525
951765 822071 525
741105 620489 509
851932 858498 419
401328 614907 470
410742 244536 449
319547 438922 449
186403 957354 525
56342 489335 449
860080 276235 525
214707 265259 443
303333 70830 443
327293 208768 443
532418 24315 470
33983 87174 351
478190 525108 470
438164 793131 509
401863 264364 441
532570 619659 452
470655 683204 509
35957 193303 383
836582 427158 509
680615 478077 509
663703 895704 525
66583 236583 443
524706 91091 470
333373 765852 509
227583 258118 443
861078 98845 525
404972 807818 509
499205 784202 509
687460 718979 504
59233 614422 470
138762 995168 525
775435 17580 509
372705 718680 509
951970 886884 507
209793 952864 525
66443 332394 443
11524 603505 470
477571 634409 509
539580 988233 525
168504 295299 443
586253 120190 470
78512 3001 351
464146 629567 509
257519 438567 449
350675 593855 470
591775 320954 470
197107 223814 386
870798 297786 525
812676 111299 509
31885 321519 443
541669 766544 509
911133 997293 507
958644 360184 525
27238 341956 443
955452 943088 414
486548 126921 449
807770 483062 509
814344 581999 509
896656 525183 525
847777 836625 525
895098 753869 525
739179 73342 509
173022 380786 443
220624 187103 386
85210 696799 509
826968 226458 509
966266 296437 525
502005 566329 470
1750 211351 383
203655 407553 443
186280 830268 509
444123 190324 449
355501 201559 443
492298 391504 449
857126 156995 525
194971 61990 383
580617 15243 470
751931 585908 509
280469 633689 509
117358 422013 449
289779 138183 443
814291 3957 509
55758 243744 443
508981 289735 449
902740 602423 525
695811 775774 504
487086 859545 525
27562 327064 443
545264 416261 470
146362 721703 509
648583 691913 442
254994 786870 509
575088 33755 470
554865 501656 470
515898 907548 525
833830 264639 509
964401 877604 507
525397 23962 470
601756 480118 470
850863 733008 525
589634 299517 470
383709 971085 525
41624 274367 443
704378 93129 509
539868 322361 470
475952 185676 449
352274 520479 470
338098 379701 441
686830 93519 509
122523 898330 525
362551 785212 509
422029 816472 509
393083 211774 443
465901 194293 449
346475 636777 509
731206 40359 509
757985 742815 424
890185 330105 525
142057 418334 449
521919 446935 470
244105 307746 407
848285 145391 525
